Introduction to R
…
# A tibble: 1 × 2
  state Average
  <chr>   <dbl>
1 DC     4651.4

We can also simply arrange the rows in descending order of average protest size.

dataProtest |>
  group_by(state) |>
  summarize(Average=mean(Attendees, na.rm=TRUE)) |>
  arrange(desc(Average))

# A tibble: 54 × 2
   state Average
   <chr>   <dbl>
 1 DC    4651.4 
 2 PR    1401.8 
 3 TX    1228.5 
 4 CA    1191.1 
 5 IL    1154.2 
 6 NY    1070.2 
 7 CO     865.97
 8 AZ     640.55
 9 MA     604.57
10 WA     604.51
# ℹ 44 more rows
…
pivot_wider() and pivot_longer() are in the tidyr package.

library(tidyr)

Let’s say that we are interested in determining which states have fewer civil rights protesters than non-civil rights protesters. With our existing group_by() and sumamrize() skills we can tabulate the number of protesters by state and by type of protest.

dataProtest |>
   group_by(state, civilrights) |>
   summarize(totAttendees = sum(Attendees, na.rm=TRUE))

`summarise()` has grouped output by 'state'. You can override using the
`.groups` argument.

# A tibble: 107 × 3
# Groups:   state [54]
   state civilrights totAttendees
   <chr>       <dbl>        <int>
 1 AK              0        15512
 2 AK              1        20475
 3 AL              0        11321
 4 AL              1        23598
 5 AR              0         8902
 6 AR              1        12957
 7 AZ              0       124949
 8 AZ              1        99245
 9 CA              0       701194
10 CA              1      2489664
# ℹ 97 more rows
Now we can see the protester counts for civil rights and non-civil rights protest for each state. However, it is not clear how to compare the rows within each state.

This is where pivot_wider() comes in handy. We tell pivot_wider() to take the civilrights column and spread its values across columns, creating a column for non-civil rights protester counts and another column for civil rights protester counts. The values that will fill the new table come from totAttendees. Since civilrights takes values 0 and 1, I have asked pivot_wider() to paste “CR” in front of the values so that we get valid R column names.

dataProtest |>
   group_by(state, civilrights) |>
   summarize(totAttendees = sum(Attendees, na.rm=TRUE)) |>
   pivot_wider(names_from = civilrights,
               values_from = totAttendees,
               names_prefix = "CR")

`summarise()` has grouped output by 'state'. You can override using the
`.groups` argument.

# A tibble: 54 × 3
# Groups:   state [54]
   state    CR0     CR1
   <chr>  <int>   <int>
 1 AK     15512   20475
 2 AL     11321   23598
 3 AR      8902   12957
 4 AZ    124949   99245
 5 CA    701194 2489664
 6 CO     88782  339872
 7 CT     52659   53626
 8 DC    477601  982935
 9 DE      5507    5773
10 FL    222991  190337
# ℹ 44 more rows
…
Second, we can get the total number of protesters by state and time period.

dataProtest |>
   filter(Date < "2021-01-01") |>
   mutate(year = substring(Date, 1, 4) |> as.numeric(),
          timePeriod = ifelse(year %in% 2017:2019,
                              "2017_2019",
                              "2020")) |>
   group_by(state, timePeriod) |>
   summarize(totProtesters = sum(Attendees, na.rm=TRUE))

`summarise()` has grouped output by 'state'. You can override using the
`.groups` argument.

# A tibble: 107 × 3
# Groups:   state [54]
   state timePeriod totProtesters
   <chr> <chr>              <int>
 1 AK    2017_2019          30781
 2 AK    2020                5196
 3 AL    2017_2019          26629
 4 AL    2020                7710
 5 AR    2017_2019          15652
 6 AR    2020                6197
 7 AZ    2017_2019         189960
 8 AZ    2020               33223
 9 CA    2017_2019        2797687
10 CA    2020              391038
# ℹ 97 more rows
…
dataProtest |>
   filter(Date < "2021-01-01") |>
   mutate(year = substring(Date, 1, 4) |> as.numeric(),
          timePeriod = ifelse(year %in% 2017:2019,
                              "2017_2019",
                              "2020")) |>
   summarize(totProtesters = sum(Attendees, na.rm=TRUE),
             .by = c(state, timePeriod)) |>
   pivot_wider(names_from = timePeriod,
               names_prefix = "year",
               values_from = totProtesters,
               values_fill = 0) |>
   arrange(state)

# A tibble: 54 × 3
   state year2017_2019 year2020
   <chr>         <int>    <int>
 1 AK            30781     5196
 2 AL            26629     7710
 3 AR            15652     6197
 4 AZ           189960    33223
 5 CA          2797687   391038
 6 CO           382137    44987
 7 CT            75083    30427
 8 DC          1393990    64540
 9 DE             6935     4195
10 FL           331471    81351
# ℹ 44 more rows
…
