Introduction to NIBRS
…
3.1 Administrative segment

We will start by reading in segment 01, the administrative segment, where the records description lies between rows 3 and 100 in fmtXL. I’m going to use grep() to find out where the description of the next segment (LEVEL 02, the offense segment) starts so I know where the end of the administrative segment is. I am also going to drop those rows where Position is missing and where Position=="59-88", which is redundant with other record descriptions which provide more details about the contents between characters 59 and 88 in administrative records.

# select only the rows for admin segment
i <- grep('LEVEL "02"', fmtXL$DataField)
fmt <- fmtXL |>
  slice(3:(i-3)) |>
  filter(!is.na(Position) &
         !(Position %in% c("59-88"))) # up to 10 UCR codes
fmt

# A tibble: 25 × 4
   DataField Position TypeLength Description                                    
   <chr>     <chr>    <chr>      <chr>                                          
 1 <NA>      1-2      A2         "SEGMENT LEVEL - Designates this as the Admini…
 2 <NA>      3-4      N2         "NUMERIC STATE CODE - This is a two-digit valu…
 3 1         5-13     A9         "ORIGINATING AGENCY IDENTIFIER (ORI) - This id…
 4 2         14-25    A12        "INCIDENT NUMBER - This is a unique case numbe…
 5 3         26-33    A8         "INCIDENT DATE - This is the date that the inc…
 6 <NA>      34       A1         "REPORT DATE INDICATOR - If value is \"R\" = R…
 7 <NA>      35-36    A2         "INCIDENT DATE HOUR - This is the military tim…
 8 <NA>      37-38    N2         "TOTAL OFFENSE SEGMENTS - This is the number o…
 9 <NA>      39-41    N3         "TOTAL VICTIM SEGMENTS - This is the number of…
10 <NA>      42-43    N2         "TOTAL OFFENDER SEGMENTS - This is the number …
# ℹ 15 more rows
…
Let’s take a look at the first three rows.

nibrsAdmin01 |> print(n=3, width=Inf)

# A tibble: 12,351,743 × 25
  SEGMENT STATE ORI       INCIDENT.NUMBER INCIDENT.DATE REPORT.DATE.INDICATOR
  <chr>   <dbl> <chr>     <chr>           <chr>         <chr>                
1 01         50 AK0010200 23000003        20230101      <NA>                 
2 01         50 AK0010200 23000005        20230101      <NA>                 
3 01         50 AK0010200 23000011        20230102      <NA>                 
  INCIDENT.DATE.HOUR TOTAL.OFFENSE.SEGMENTS TOTAL.VICTIM.SEGMENTS
  <chr>                               <dbl>                 <dbl>
1 11                                      1                     1
2 15                                      1                     1
3 16                                      1                     1
  TOTAL.OFFENDER.SEGMENTS TOTAL.ARRESTEE.SEGMENTS CITY.SUBMISSION
                    <dbl>                   <dbl> <chr>          
1                       1                       0 <NA>           
2                       1                       0 <NA>           
3                       2                       0 <NA>           
  CLEARED.EXCEPTIONALLY EXCEPTIONAL.CLEARANCE.DATE OFFENSE.CODE.1 OFFENSE.CODE.2
  <chr>                 <chr>                      <chr>          <chr>         
1 N                     <NA>                       <NA>           <NA>          
2 N                     <NA>                       <NA>           <NA>          
3 N                     <NA>                       <NA>           <NA>          
  OFFENSE.CODE.3 OFFENSE.CODE.4 OFFENSE.CODE.5 OFFENSE.CODE.6 OFFENSE.CODE.7
  <chr>          <chr>          <chr>          <chr>          <chr>         
1 <NA>           <NA>           <NA>           <NA>           <NA>          
2 <NA>           <NA>           <NA>           <NA>           <NA>          
3 <NA>           <NA>           <NA>           <NA>           <NA>          
  OFFENSE.CODE.8 OFFENSE.CODE.9 OFFENSE.CODE.10 Cargo.Theft.Indicator
  <chr>          <chr>          <chr>           <chr>                
1 <NA>           <NA>           <NA>            N                    
2 <NA>           <NA>           <NA>            N                    
3 <NA>           <NA>           <NA>            N                    
# ℹ 12,351,740 more rows
…
A complete list of offenses that fall into Group A can be found at the Bureau of Justice Statistics website. Generally, Group A includes arson, assault, burglary, counterfeiting, vandalism, drugs, extortion, fraud, gambling, homicide, human trafficking, kidnapping, theft, motor vehicle theft, obscene material, prostitution, robbery, sex offenses, and weapons offenses. You will not find reports of Group B offenses in the offense segment. Group B offenses include writing bad checks, curfew violations, loitering, disorderly conduct, drunk driving, family offenses, peeping tom, trespassing, and other non-violent offenses. These crimes only get included in NIBRS arrest segment if there is an arrest. Reports from the public about Group B offenses do not make it into the offense segment.

As with the administrative segment, we will extract from the Excel records description the offense segment’s format.

# select only the rows for offense segment,
#   everything between LEVEL 02 and LEVEL 03
i <- grep('LEVEL "02"', fmtXL$DataField)
j <- grep('LEVEL "03"', fmtXL$DataField)
fmt <- fmtXL |>
  slice((i+1):(j-3)) |>
  filter(!is.na(Position) &
         !(Position %in% c("38-40","46-48","49-57")))
fmt

# A tibble: 21 × 4
   DataField Position TypeLength Description                                    
   <chr>     <chr>    <chr>      <chr>                                          
 1 <NA>      1-2      A2         "SEGMENT LEVEL - Designates this as the Offens…
 2 <NA>      3-4      N2         "NUMERIC STATE CODE - This is a two-digit valu…
 3 1         5-13     A9         "ORIGINATING AGENCY IDENTIFIER (ORI) - This id…
 4 2         14-25    A12        "INCIDENT NUMBER - This is a unique case numbe…
 5 3         26-33    A8         "INCIDENT DATE - This is the same date value f…
 6 6         34-36    A3         "UCR OFFENSE CODE"                             
 7 7         37       A1         "OFFENSE ATTEMPTED/COMPLETED - This indicates …
 8 8         38       A1         "SUSPECTED OF USING #1"                        
 9 8         39       A1         "SUSPECTED OF USING #2"                        
10 8         40       A1         "SUSPECTED OF USING #3"                        
# ℹ 11 more rows
…
nibrsCrm02 <- read_fwf("2023-02.txt.gz",
                       col_positions = fwf_widths(fmtWidth),
                       col_type=paste(fmtType,collapse="")) |>
   rename_with(~fmtNames) |>
   rename(ORI=ORIGINATING.AGENCY.IDENTIFIER.ORI,
          SEGMENT=SEGMENT.LEVEL,
          STATE=NUMERIC.STATE.CODE)

Let’s pull up the offense record for the Fairbanks, Alaska incident 2300003 that was in the first row of the administrative segment.

nibrsCrm02 |> filter(INCIDENT.NUMBER=="23000003") |> print(n=3, width=80)

# A tibble: 91 × 21
  SEGMENT STATE ORI       INCIDENT.NUMBER INCIDENT.DATE UCR.OFFENSE.CODE
  <chr>   <dbl> <chr>     <chr>           <chr>         <chr>           
1 02         50 AK0010200 23000003        20230101      23D             
2 02         50 AK0010900 23000003        20230101      290             
3 02          2 AZ0071300 23000003        20230101      520             
# ℹ 88 more rows
# ℹ 15 more variables: OFFENSE.ATTEMPTED.COMPLETED <chr>,
#   SUSPECTED.OF.USING.1 <chr>, SUSPECTED.OF.USING.2 <chr>,
#   SUSPECTED.OF.USING.3 <chr>, LOCATION.TYPE <chr>,
#   NUMBER.OF.PREMISES.ENTERED <chr>, METHOD.OF.ENTRY <chr>,
#   CRIMINAL.ACTIVITY.1.GANG.INFORMATION.1 <chr>,
#   CRIMINAL.ACTIVITY.2.GANG.INFORMATION.2 <chr>, CRIMINAL.ACTIVITY.3 <chr>, …
…
