Working with Geographic Data
…
Getting data from the 2006-2010 5-year ACS

Warning: • You have not set a Census API key. Users without a key are limited to 500
queries per day and may experience performance limitations.
ℹ For best results, get a Census API key at
http://api.census.gov/data/key_signup.html and then supply the key to the
`census_api_key()` function to use it throughout your tidycensus session.
This warning is displayed once per session.

Census API call: https://api.census.gov/data/2010/acs/acs5?get=B03002_001E%2CB03002_001M%2CB03002_003E%2CB03002_003M%2CB03002_004E%2CB03002_004M%2CB03002_012E%2CB03002_012M%2CNAME&for=tract%3A%2A&in=state%3A06%2Bcounty%3A037

dataRace

# A tibble: 9,384 × 5
   GEOID       NAME                                      variable estimate   moe
   <chr>       <chr>                                     <chr>       <dbl> <dbl>
 1 06037101110 Census Tract 1011.10, Los Angeles County… B03002_…     5017   362
 2 06037101110 Census Tract 1011.10, Los Angeles County… B03002_…     3248   466
 3 06037101110 Census Tract 1011.10, Los Angeles County… B03002_…       38    41
 4 06037101110 Census Tract 1011.10, Los Angeles County… B03002_…     1085   390
 5 06037101122 Census Tract 1011.22, Los Angeles County… B03002_…     3663   287
 6 06037101122 Census Tract 1011.22, Los Angeles County… B03002_…     2426   286
 7 06037101122 Census Tract 1011.22, Los Angeles County… B03002_…        0   132
 8 06037101122 Census Tract 1011.22, Los Angeles County… B03002_…      451   167
 9 06037101210 Census Tract 1012.10, Los Angeles County… B03002_…     6799   575
10 06037101210 Census Tract 1012.10, Los Angeles County… B03002_…     3235   529
# ℹ 9,374 more rows
…
dataRace <- dataRace |>
   select(GEOID, variable, estimate) |>
   mutate(race = case_match(variable,
               "B03002_001" ~ "total",
               "B03002_003" ~ "white",
               "B03002_004" ~ "black",
               "B03002_012" ~ "hisp")) |>
   select(-variable) |>
   pivot_wider(names_from = race,
               values_from = estimate,
               values_fill = 0) |>
   mutate(other = total-white-black-hisp)
dataRace

# A tibble: 2,346 × 6
   GEOID       total white black  hisp other
   <chr>       <dbl> <dbl> <dbl> <dbl> <dbl>
 1 06037101110  5017  3248    38  1085   646
 2 06037101122  3663  2426     0   451   786
 3 06037101210  6799  3235   252  2790   522
 4 06037101220  3189  1768    23  1148   250
 5 06037101300  3808  3121    12   423   252
 6 06037101400  3733  2868   132   406   327
 7 06037102103  1841  1264    39   298   240
 8 06037102104  3695  2763    32   550   350
 9 06037102105  1525   166     0  1193   166
10 06037102107  3503  2332    40   826   305
# ℹ 2,336 more rows
…
